{
  "ids": [
    "asklepios",
    "autodesk",
    "bertelsmann-health",
    "endogap",
    "fuenf-hoefe",
    "kjf",
    "klinikum-garmisch-partenkirchen",
    "pari",
    "rhoen-klinikum",
    "sana-kliniken-ag",
    "schoen-klinik",
    "sozialstiftung-bamberg",
    "stellenanzeigen-de"
  ]
}
