{
  "id": "autodesk",
  "fallbackColor": "plum",
  "colorOne": "#001C36",
  "colorTwo": "#01519E",
  "dark": true,
  "logo": "autodesk",
  "image": "/content/uploads/projects/autodesk/teaser.jpg",
  "title": "Maximale Kundenansprache: Boosting-Kampagne für Revit  ",
  "hero": "/content/uploads/projects/autodesk/hero.jpg",
  "heroAlt": "Halb geöffneter Laptop zeigt eine Website",
  "briefing": "Für unseren Kunden Autodesk haben wir anhand zahlreicher Befragungen analysiert, was Architektinnen und Architekten im Umgang mit ihrer bisherigen Planungssoftware fehlt. Mit Hilfe dieses Feedbacks konnten wir die Nutzerbedürfnisse genau feststellen und auf ihrer Grundlage unsere Boosting-Kampagne für die Planungssoftware „Revit“ ganz auf die Zielgruppe zuschneiden.",
  "leistungen": [
    "80 Social Ads",
    "24 How-to-Videos",
    "20 E-Mail-Blasts",
    "15 Landingpages"
  ],
  "blocks": [
    {
      "template": "separator",
      "customGradient": false,
      "image": "/content/uploads/placeholder_separator.jpg",
      "alt": "Platzhalter",
      "title": ""
    },
    {
      "template": "text",
      "title": "Die Kampagne",
      "text": "Die Strategie bestand darin, die Zielgruppe selbst zu Wort kommen zu lassen. Im Verlauf der Kampagne wurden mehrstufige Mailings an über 15.000 Adressatinnen und Adressaten versendet. Zudem wurden unterstützende Social-Media-Maßnahmen entwickelt. Eine Landingpage bewarb die verschiedenen Aktionen der Kampagne."
    },
    {
      "template": "gallery",
      "images": [
        {
          "src": "/content/uploads/placeholder_topic.jpg",
          "alt": "Galleriebild"
        },
        {
          "src": "/content/uploads/placeholder_separator.jpg",
          "alt": "Galleriebild"
        },
        {
          "src": "/content/uploads/placeholder_text-image.jpg",
          "alt": "Galleriebild"
        }
      ]
    },
    {
      "template": "text",
      "title": "Die Umsetzung",
      "text": "Jedes Mailing fokussierte ein Problem, das die Zielgruppe mit ihrer bisherigen Software hatte – und präsentierte direkt die passende Lösung. Eine bewusst provozierende Sprache sollte dabei die Aufmerksamkeit der Empfänger erregen. Um die Inhalte der Mailings zu vertiefen und das Lösungs-Angebot von Autodesk zu bewerben, haben wir außerdem eine passende, zugkräftige Landingpage erstellt."
    },
    {
      "template": "quote",
      "customGradient": true,
      "src": "/content/uploads/placeholder_customer.jpg",
      "name": "Max Muster",
      "text": "Hallo ich bin ein kleiner Blindtext. Und zwar schon so lange ich denken kann. Es wir nicht leicht zu verstehen, was es bedeutet ein blinder Text zu sein. Man ergibt einfach keinen Sinn. "
    }
  ],
  "weitereProjekte": [
    "schoen",
    "kjf"
  ],
  "seo": {
    "title": "",
    "description": "",
    "image": "",
    "imageAlt": "",
    "cardStyle": "summary_large_image",
    "keywords": [

    ],
    "noindex": true
  }
}
