{
  "id": "schoen",
  "fallbackColor": "orange",
  "colorOne": "#B96301",
  "colorTwo": "#EE7F00",
  "dark": true,
  "logo": "schoen-klinik",
  "image": "/content/uploads/modul_projekt_schoen_neu.jpg",
  "type": "Social Media Kampagne",
  "title": "Glücksmomente statt Kalorien zählen!",
  "hero": "/content/uploads/modul_projekt_schoen_header_neu.jpg",
  "heroAlt": "Eine Hand hält ein aufgeschlagenes Magazin ",
  "briefing": "Mit einer Online- und Social-Media-Kampagne wollte die Schön Klinik Betroffene und ihre Angehörigen auf das breite Angebot an Behandlungsmöglichkeiten bei psychosomatischen Erkrankungen – etwa Essstörungen oder Depressionen – aufmerksam machen.",
  "leistungen": [
    "Kampagnen-Entwicklung",
    "Online-Banner-Erstellung",
    "Key-Visual-Entwicklung",
    "Web-Content-Kreation",
    "Erstellung Broschüre „Psychosomatik bei Kindern und Jugendlichen“"
  ],
  "blocks": [
    {
      "template": "separator",
      "customGradient": false,
      "image": "/content/uploads/modul_schoen_klinik_2400x1000_neu.jpg",
      "alt": "PLatzhalter",
      "title": ""
    },
    {
      "template": "text",
      "title": "Die Umsetzung",
      "text": "Die Kampagne sollte Betroffene und Angehörige auf das breite Angebot an Behandlungsmöglichkeiten bei psychosomatischen Erkrankungen aufmerksam machen. Dazu gehören unter anderem Essstörungen, Depressionen oder Angststörungen. Für dieses sensible Thema wählte FLAVOUR einen besonders emotionalen und verständnisvollen Ansatz, bei dem die Identifikation mit der Zielgruppe immer im Vordergrund steht."
    },
    {
      "template": "gallery",
      "images": [
        {
          "alt": "Galeriebild",
          "src": "/content/uploads/modul_schoen_klinik_1295x609_neu.jpg"
        },
        {
          "alt": "Galeriebild",
          "src": "/content/uploads/modul_schoen_klinik_624x426_01_neu.jpg"
        },
        {
          "alt": "Galeriebild",
          "src": "/content/uploads/modul_schoen_klinik_624x426_02_neu.jpg"
        }
      ]
    }
  ],
  "weitereProjekte": [
    "fuenf-hoefe",
    "kjf"
  ],
  "seo": {
    "title": "",
    "description": "",
    "image": "",
    "imageAlt": "",
    "cardStyle": "summary_large_image",
    "keywords": [

    ]
  }
}
