<svg xmlns="http://www.w3.org/2000/svg" viewBox="0 0 480 96">
  <path d="M49.3 22.4a.5.5 0 00-.4-.7 43.8 43.8 0 00-36.4 40 11.7 11.7 0 0015.2 0 .4.4 0 000-.3s-3.3-25.6 21.6-39z" fill="#4fac30"/>
  <path d="M34.5 71.5a.5.5 0 00-.4.6 44.1 44.1 0 0052.8 11.6c.1 0 .2 0 .3-.3 1-8.8-5.1-12.2-7.6-13l-.3.1s-20.6 15.7-44.8 1z" fill="#ffda00"/>
  <path d="M84.7 59.4a.5.5 0 00.8 0c7-20.9-.7-40.5-16.3-51.3l-.4-.1c-8.2 3.6-8 10.5-7.5 13 0 .2.2.3.2.3s24 10 23.2 38.1z" fill="#005295"/>
  <path d="M42.1 51a14 14 0 1114 14 14 14 0 01-14-14z" fill="#c3143d"/>
  <path fill="#1d1d1b" d="M126.3 45l-.7-.3-1.1-.4-1.4-.3a9.5 9.5 0 00-1.5-.1 2.7 2.7 0 00-1.8.6 2.4 2.4 0 00-.7 2 2.5 2.5 0 00.6 1.7 7.5 7.5 0 001.6 1.2l2 1.2a10.4 10.4 0 012.1 1.2 6.5 6.5 0 011.6 1.6 4.2 4.2 0 01.7 2.4 5.1 5.1 0 01-.6 2.4 4.9 4.9 0 01-1.4 1.6 5.6 5.6 0 01-2.1.9 11.1 11.1 0 01-2.6.2h-1.5c-.5 0-1-.2-1.4-.3l-1-.2-.7-.2v-2l.8.4a8.7 8.7 0 001.2.5 12.7 12.7 0 001.5.4 7.3 7.3 0 001.5.2 4.6 4.6 0 001.3-.1 3.5 3.5 0 001-.5 2.3 2.3 0 00.8-1 3.4 3.4 0 00.2-1.5 2.6 2.6 0 00-.6-1.8 7 7 0 00-1.6-1.3l-2-1.1a11 11 0 01-2.1-1.3 5.9 5.9 0 01-1.6-1.6 4 4 0 01-.6-2.3 4 4 0 011.5-3.4 7 7 0 014.4-1.2 16.3 16.3 0 012.5.2l1.7.3v2zM135 60.3a5.8 5.8 0 01-2.3-1.8 7 7 0 01-1.2-2.9 20.9 20.9 0 010-7.6 7.3 7.3 0 011.2-2.9 5.1 5.1 0 012.3-1.8 8.9 8.9 0 013.6-.7 8.3 8.3 0 013.4.7 5.5 5.5 0 012.2 1.8 8.2 8.2 0 011.2 2.9 19.5 19.5 0 01.4 3.8 18.8 18.8 0 01-.4 3.8 7.5 7.5 0 01-1.2 2.9 5.2 5.2 0 01-2.2 1.9 8.3 8.3 0 01-3.5.6 9.8 9.8 0 01-3.5-.7zm-.8-5.8a9.2 9.2 0 00.6 2.5 5.4 5.4 0 001.3 2 3.5 3.5 0 002.4.8 3.5 3.5 0 002.4-.8 4.4 4.4 0 001.3-2 10.3 10.3 0 00.5-2.5V52v-2.7a10.8 10.8 0 00-.6-2.6 4.7 4.7 0 00-1.2-2 4.1 4.1 0 00-4.8 0 4.4 4.4 0 00-1.3 2 9.4 9.4 0 00-.6 2.5l-.1 2.7a15.9 15.9 0 00.1 2.7zM148.5 59.1l8.9-15h-4.5a10.2 10.2 0 00-1.1 0 2.6 2.6 0 00-1 .3 1.5 1.5 0 00-.7.8 3.1 3.1 0 00-.3 1.5h-.7v-3.9h11.5v1.4l-9 15.1h6.6a2.1 2.1 0 001-.3 1.5 1.5 0 00.7-.7 3.2 3.2 0 00.3-1.5h.7l-.1 3.8h-12.3zM166.5 46.4V45a1.4 1.4 0 00-.3-.7 1.6 1.6 0 00-.8-.3l-1.5-.3v-.6l5.6-.6v18h-3zM178.6 46.3l.1-.4.2-.5a3.2 3.2 0 01.1-.4.8.8 0 000-.3 1 1 0 00-.1-.6 1.1 1.1 0 00-.5-.3 1.8 1.8 0 00-.7-.2h-.7v-.7h5l6.4 17.8h-2.8l-2-5.5H177l-2 5.5h-1.6zm-1.2 7.6h5.8l-3-7.7zM192.5 46.4V45a1.4 1.4 0 00-.3-.7 1.6 1.6 0 00-.8-.3l-1.5-.3v-.6l5.5-.6v14.8a9 9 0 000 1.1 1 1 0 00.2.7.9.9 0 00.6.2h3.2a11.3 11.3 0 001.2 0 2.7 2.7 0 001-.3 1.5 1.5 0 00.7-.8 3.7 3.7 0 00.3-1.4h.7v3.8h-10.8V46.4zM216.4 45l-.8-.3-1-.4c-.5 0-1-.2-1.4-.3a10.8 10.8 0 00-1.5-.1 2.7 2.7 0 00-1.8.6 2.4 2.4 0 00-.8 2 2.5 2.5 0 00.7 1.7 7.6 7.6 0 001.6 1.3l2 1a10.8 10.8 0 012.1 1.3 6.3 6.3 0 011.6 1.6 4.2 4.2 0 01.6 2.4 5.1 5.1 0 01-.5 2.4 4.9 4.9 0 01-1.4 1.6 5.7 5.7 0 01-2.1 1 11.1 11.1 0 01-2.6.2l-1.5-.1-1.4-.2-1-.3-.8-.1V58l.9.5a9.5 9.5 0 001.2.5 15 15 0 001.4.4 7.3 7.3 0 001.6.2 4.6 4.6 0 001.2-.1 3.6 3.6 0 001.1-.5 2.3 2.3 0 00.7-1 3.4 3.4 0 00.3-1.5 2.6 2.6 0 00-.6-1.8 6.8 6.8 0 00-1.6-1.3l-2-1.1a10.4 10.4 0 01-2.2-1.3 5.9 5.9 0 01-1.5-1.6 4 4 0 01-.7-2.3 4 4 0 011.6-3.4 7 7 0 014.4-1.2 16.3 16.3 0 012.5.2l1.7.3v2zM225.4 44.1h-1.8a3.1 3.1 0 00-2.2.6 3.2 3.2 0 00-.7 2h-.7l.1-3.8h13.6v3.9h-.7a2.6 2.6 0 00-.6-2.1 3.5 3.5 0 00-2.3-.6h-1.8v16.6h-2.9zM239 46.4V45a1.4 1.4 0 00-.3-.7 1.5 1.5 0 00-.8-.3l-1.5-.3v-.6l5.5-.6v18H239zM248 46.5v-1.6a1.2 1.2 0 00-.2-.8 1.3 1.3 0 00-.8-.3l-1.4-.3v-.6h12.6l.1 4h-.7a2.5 2.5 0 00-.8-2.2 3.8 3.8 0 00-2-.6h-2.1a4.5 4.5 0 00-.8 0 1.1 1.1 0 00-.5.2.7.7 0 00-.3.4 3.5 3.5 0 000 .8v5.2h3.1a3.2 3.2 0 001.1-.2 1.4 1.4 0 00.6-.5 2.2 2.2 0 00.3-.6 5.7 5.7 0 00.2-.7h.7v5.5h-.7a2.5 2.5 0 00-.5-1.7 2.1 2.1 0 00-1.7-.6H251v8.7h-3zM267 44.1H265a3 3 0 00-2.1.6 3.1 3.1 0 00-.7 2h-.8l.1-3.8h13.6l.1 3.9h-.7a2.6 2.6 0 00-.7-2.1 3.5 3.5 0 00-2.2-.6h-1.8v16.6h-3zM293 53.8a18.5 18.5 0 01-.2 2.6 5.7 5.7 0 01-.8 2.3 4.3 4.3 0 01-1.9 1.6 8 8 0 01-3.5.6 9.4 9.4 0 01-3-.4 4.6 4.6 0 01-2-1.2 4.4 4.4 0 01-1-1.9 9 9 0 01-.3-2.6v-8.4V45a1.4 1.4 0 00-.4-.7 1.5 1.5 0 00-.8-.4l-1.5-.2v-.6l5.6-.6v13.2a5.4 5.4 0 00.4 2 3 3 0 001.1 1.4 3.8 3.8 0 002.2.5 4.4 4.4 0 002.4-.5 3 3 0 001.1-1.3 5.2 5.2 0 00.5-1.8V43h2.1zM298.4 46.3a12.1 12.1 0 000-1.4 1.2 1.2 0 00-.4-.8 1.8 1.8 0 00-.8-.3l-1.4-.3v-.6h5.6l8.3 14.3V43h1.6v17.8h-2.5l-8.7-15v15h-1.7zM329.1 59.9l-1 .3-1.5.3-1.7.3a13.1 13.1 0 01-1.8.1 9.2 9.2 0 01-3.6-.6 5.6 5.6 0 01-2.3-1.9 8 8 0 01-1.3-3 20.3 20.3 0 01-.4-3.9 16.9 16.9 0 01.4-3.6 7 7 0 011.2-2.8 6 6 0 012.2-1.8 9 9 0 013.6-.7 10.1 10.1 0 012.6.3 6.8 6.8 0 011.8.9 3.6 3.6 0 011 1.2 4.9 4.9 0 01.5 1.5h-3a4 4 0 00-.3-.8 2.7 2.7 0 00-.5-.9 2.8 2.8 0 00-1-.7 3.1 3.1 0 00-1.3-.2 3.3 3.3 0 00-2.3.7 4.6 4.6 0 00-1.2 2 9.8 9.8 0 00-.6 2.4v2.7a20.3 20.3 0 00.2 3.1 7.6 7.6 0 00.8 2.6 4.4 4.4 0 001.6 1.7 4.7 4.7 0 002.6.7 6.8 6.8 0 001.3-.1 5.1 5.1 0 001.1-.4V54a10.8 10.8 0 000-1.4 1.3 1.3 0 00-.4-.7 1.6 1.6 0 00-.8-.4l-1.4-.3v-.5h5.6v9.2zM344.4 46.5v-1.6a1.2 1.2 0 00-.3-.8 1.3 1.3 0 00-.8-.3l-1.4-.3v-.6h7.9a14.4 14.4 0 012.3.2 5.8 5.8 0 012 .6 3.8 3.8 0 011.4 1.3 3.7 3.7 0 01.6 2.2 4.2 4.2 0 01-.4 1.6 3.6 3.6 0 01-.8 1.2 4 4 0 01-1 .7 5.5 5.5 0 01-1 .5 6.4 6.4 0 011.5.4 4.7 4.7 0 011.3.8 3.7 3.7 0 011 1.4 5.4 5.4 0 01.4 2 4.3 4.3 0 01-.5 2 3.7 3.7 0 01-1 1.4 4.5 4.5 0 01-1.5.8 12.5 12.5 0 01-1.7.4 13.2 13.2 0 01-1.6.2h-6.3V46.5zm2.9 4.1h1.8a7.2 7.2 0 001.5-.1 3.1 3.1 0 001.3-.6 2.7 2.7 0 00.8-1 4 4 0 00.4-1.6 2.8 2.8 0 00-1-2.4 4.8 4.8 0 00-2.8-.7 9.5 9.5 0 00-1 0 1.3 1.3 0 00-.6.2 1 1 0 00-.4.4 2 2 0 000 .7v5.1zm0 7.7a1 1 0 00.2.6 1.1 1.1 0 00.5.4 2.5 2.5 0 00.8 0h1a4.4 4.4 0 003.2-1 4 4 0 001-3 3.6 3.6 0 00-.3-1.6 3.3 3.3 0 00-1-1 3.8 3.8 0 00-1.3-.7 7.5 7.5 0 00-1.7-.2h-2.4v6.5zM364.8 46.3v-.4l.2-.5.1-.4a.8.8 0 000-.3 1 1 0 00-.1-.6 1 1 0 00-.5-.3 1.7 1.7 0 00-.6-.2h-.8v-.7h5l6.4 17.8h-2.7l-2-5.5H363l-2 5.5h-1.5zm-1.2 7.6h5.8l-3-7.7zM378.6 46.3l-.1-1.4a1.2 1.2 0 00-.4-.8 1.8 1.8 0 00-.8-.3l-1.4-.3v-.6h6l5.3 14.6 5.1-14.6h3.6v17.8h-2.7V45l-5.5 15.7h-2L380.3 45v15.6h-1.6zM402.2 46.5v-1.6a1.1 1.1 0 00-.3-.8 1.4 1.4 0 00-.7-.3l-1.4-.3v-.6h7.8a14.2 14.2 0 012.3.2 5.9 5.9 0 012 .6 3.9 3.9 0 011.5 1.3 3.7 3.7 0 01.5 2.2 4.2 4.2 0 01-.3 1.6 3.5 3.5 0 01-.8 1.2 3.9 3.9 0 01-1 .7 5.8 5.8 0 01-1 .5 6.4 6.4 0 011.4.4 4.6 4.6 0 011.3.8 3.5 3.5 0 011 1.4 5.5 5.5 0 01.4 2 4.5 4.5 0 01-.4 2 3.7 3.7 0 01-1.1 1.4 4.5 4.5 0 01-1.5.8 15 15 0 01-1.7.4 13.4 13.4 0 01-1.6.2h-6.3V46.5zm3 4.1h1.7a7 7 0 001.6-.1 3.3 3.3 0 001.3-.6 2.7 2.7 0 00.8-1 3.8 3.8 0 00.3-1.6 2.8 2.8 0 00-1-2.4 4.8 4.8 0 00-2.8-.7 9.6 9.6 0 00-1 0 1.3 1.3 0 00-.6.2 1 1 0 00-.3.4 2.3 2.3 0 000 .7v5.1zm0 7.7a1 1 0 00.1.6 1 1 0 00.6.4 2.4 2.4 0 00.8 0h1a4.4 4.4 0 003.2-1 4.1 4.1 0 001-3 3.6 3.6 0 00-.4-1.6 3.2 3.2 0 00-1-1 3.6 3.6 0 00-1.3-.7 7.5 7.5 0 00-1.6-.2H405v6.5zM420.4 46.5v-1.6a1.2 1.2 0 00-.3-.8 1.3 1.3 0 00-.8-.3l-1.4-.3v-.6h12.6v4h-.7a2.5 2.5 0 00-.7-2.2 3.6 3.6 0 00-2-.6h-2.2a4.4 4.4 0 00-.8 0 1 1 0 00-.5.2.7.7 0 00-.2.4 3.5 3.5 0 00-.1.8v5.2h3.2a2.8 2.8 0 001-.2 1.6 1.6 0 00.7-.5 1.4 1.4 0 00.3-.6 3.4 3.4 0 00.1-.7h.7v5.5h-.7a2.6 2.6 0 00-.5-1.7 2.2 2.2 0 00-1.7-.6h-3.1v6a4.1 4.1 0 000 .8.9.9 0 00.3.4 1 1 0 00.5.2h3.8a3.8 3.8 0 001 0 1.8 1.8 0 00.7-.5 2 2 0 00.5-.8 5 5 0 00.2-1.3h.7v3.9h-10.6zM436.5 46.5v-1.6a1.2 1.2 0 00-.3-.8 1.3 1.3 0 00-.7-.3l-1.5-.3v-.6h7.8a12.4 12.4 0 011.5.1 8.2 8.2 0 011.7.5 5.4 5.4 0 011.5.8 3.6 3.6 0 011 1.3 4.3 4.3 0 01.5 2 4.7 4.7 0 01-.4 2 4.4 4.4 0 01-.8 1.2 3.6 3.6 0 01-1.3.8 11.1 11.1 0 01-1.5.4l4.8 8.7h-3l-4.6-8.2h-1.7v8.2h-3V46.5zm2.9 4.7h1.5a8.8 8.8 0 001.3-.1 3.4 3.4 0 001.4-.5 3 3 0 001-1 3.5 3.5 0 00.4-1.8 4.7 4.7 0 00-.3-1.8 2.8 2.8 0 00-.9-1 3.4 3.4 0 00-1.2-.6 6.2 6.2 0 00-1.5-.2 3.8 3.8 0 00-1 .1 1 1 0 00-.5.4 1.3 1.3 0 00-.2.7v5.8zM465.3 59.9l-1 .3-1.5.3-1.7.3a13 13 0 01-1.8.1 9.2 9.2 0 01-3.6-.6 5.7 5.7 0 01-2.3-1.9 8 8 0 01-1.3-3 20.3 20.3 0 01-.3-3.9 17.6 17.6 0 01.3-3.6 7 7 0 011.2-2.8 6 6 0 012.3-1.8 9 9 0 013.6-.7 10.2 10.2 0 012.5.3 6.7 6.7 0 011.8.9 3.6 3.6 0 011.1 1.2 4.6 4.6 0 01.5 1.5h-3.2a4.8 4.8 0 00-.2-.8 2.7 2.7 0 00-.6-.9 2.9 2.9 0 00-.9-.7 3.1 3.1 0 00-1.4-.2 3.3 3.3 0 00-2.3.7 4.6 4.6 0 00-1.2 2 10.2 10.2 0 00-.5 2.4l-.1 2.7a20.3 20.3 0 00.2 3.1 7.6 7.6 0 00.8 2.6 4.4 4.4 0 001.6 1.7 4.8 4.8 0 002.6.7 6.8 6.8 0 001.4-.1 5.3 5.3 0 001-.4V54a10.8 10.8 0 000-1.4 1.3 1.3 0 00-.4-.7 1.6 1.6 0 00-.8-.4l-1.4-.3v-.5h5.6v9.2z"/>
</svg>
