{
  "id": "hightech",
  "color": "leaf",
  "dark": true,
  "h1": "Hightech",
  "titel": "Kompetenzbereich",
  "einleserHTML": "In der heutigen Welt reicht es schon lange nicht mehr aus, nur eine Website zu haben. Soziale Medien, Bannerwerbung und Influencer müssen beachtet werden. Bei diesem hohen Komplexitätsgrad sollten Sie Computer für sich arbeiten lassen – durch Automatisierung, die Ihnen volle Kontrolle gewährt und dabei Zeit spart.",
  "themenTitel": "Unsere Schwerpunkte:",
  "videoId": "null",
  "videoThumbnail": "/content/uploads/hightech_video.jpg",
  "videoTitel": "Marketing für die Digitale Welt",
  "warumHTML": "<strong>Warum überhaupt? </strong>Marketing-Budgets schrumpfen, Ressourcen werden knapper – und gleichzeitig steigen die Anforderungen: Kommunikationsabteilungen übernehmen Vertriebsaufgaben, Zielgruppen werden individueller angesprochen, zudem sind Kampagnenerfolge messbar. Das ist nur mit modernen Tools möglich.",
  "wasHTML": "<strong>Was bieten wir?</strong> Unser oberstes Gut: die Lead-Generierung. Als Marketing-Agentur und Content-Schmiede mit Digitalfokus sind wir Experten darin, Zielgruppen effektiv anzusprechen und Marken zu formen, die verkaufen – mit einem passgenauen Set aus Marketing-Maßnahmen und Content.",
  "zitatKunde": "Beispielunternehmen",
  "zitatName": "Kunde B",
  "zitat": "Dank der Kampagnenstrategie von Flavour konnte unser Produkt viermal so viele Menschen erreichen wie zuvor.",
  "zitatBild": "/content/uploads/placeholder_customer.jpg",
  "kundenTitel": "Diese Kunden zählen auf uns",
  "kunden": [
    "autodesk",
    "fuenf-hoefe",
    "lectra",
    "medallia",
    "pari",
    "pb3c",
    "stellenanzeigen-de",
    "vmware"
  ],
  "stories": [
    "stanz",
    "pari"
  ],
  "gatedAsset": "ebook-2",
  "gatedContentBild": "/content/uploads/placeholder_text-image.jpg",
  "gatedContentTitel": "Profitieren Sie von unserem E-Book",
  "gatedContent": "Erfahren Sie in diesem kostenlosen E-Book, wie jeder einzelne Klick zu einer Conversion führen kann und steigern Sie Ihre Klickraten um bis zu 2000 Prozent. Von Branchen-Experten empfohlen.",
  "gatedContentButton": "E-Book downloaden",
  "seo": {
    "title": "",
    "description": "",
    "image": "",
    "imageAlt": "",
    "cardStyle": "summary_large_image",
    "keywords": [

    ],
    "canonicalUrl": "",
    "noindex": false
  }
}
